native/src/mock.vcd
$date Mon Jun 01 00:00:00 2026 $end
$version riptide-mock $end
$timescale 1ns $end
$scope module top $end
  $scope module des $end
  $upscope $end
  $scope module keysched $end
    $var wire 1 ! clk $end
    $var wire 1 " rst_n $end
    $var wire 11 # c[10:0] $end
    $var wire 9 $ load1[0:8] $end
    $var wire 9 % load2[0:8] $end
    $var wire 9 & load3[0:8] $end
    $var wire 32 ' data[31:0] $end
    $var wire 2 ( state[1:0] $end
    $scope module fsm $end
      $var wire 3 ) cur[2:0] $end
      $var wire 3 * nxt[2:0] $end
    $upscope $end
    $scope module xbar $end
      $var wire 4 + req[3:0] $end
      $var wire 4 , gnt[3:0] $end
    $upscope $end
    $scope module waves $end
      $var wire 1 - clk $end
      $var reg 1 . rst $end
      $var reg 2 / state[1:0] $end
      $var reg 8 0 cycle_count[7:0] $end
      $var reg 1 1 in_valid $end
      $var reg 8 2 in_data[7:0] $end
      $var reg 16 3 in_addr[15:0] $end
      $var reg 1 4 out_valid $end
      $var reg 32 5 out_data[31:0] $end
      $var reg 4 6 fifo_level[3:0] $end
      $var wire 1 7 fifo_empty $end
      $var wire 8 8 dbus[7:0] $end
      $var reg 64 9 wide_data[63:0] $end
    $upscope $end
  $upscope $end
  $scope module mem_ctrl $end
    $var wire 8 : addr[7:0] $end
    $var wire 1 ; wen $end
    $var wire 8 < rdata[7:0] $end
  $upscope $end
  $scope module dma $end
    $var wire 16 = src[15:0] $end
    $var wire 16 > dst[15:0] $end
    $var wire 1 ? active $end
  $upscope $end
  $scope module uart $end
    $var wire 1 @ tx $end
    $var wire 1 A rx $end
    $var wire 16 B baud[15:0] $end
  $upscope $end
$upscope $end
$scope module derived $end
  $var wire 1 C busy $end
  $var wire 1 D done $end
$upscope $end
$enddefinitions $end
#0
$dumpvars
0!
0"
bx #
bx $
bx %
bx &
bx '
bx (
b0 )
b1 *
b0 +
b0 ,
0-
1.
bx /
bx 0
01
bx 2
bx 3
04
bx 5
bx 6
x7
bx 8
bx 9
bx :
0;
bx <
bx =
bx >
0?
1@
1A
b110110010 B
0C
0D
$end
#5
1!
1-
#10
0!
1"
b0 #
0-
0.
#15
1!
1-
b0 /
b0 0
b0 6
17
bz 8
b10000000000000 =
b11000000000000 >
1?
#20
0!
b10100001 $
b10110010 %
b11000011 &
b1 (
0-
b1000000 :
1;
#25
1!
b1 )
b10 *
b101 +
1-
b1 0
11
b10100011 2
b1000000000000 3
b1 6
07
b1010101 8
b1101111010101101101111101110111111001010111111101011000010111010 9
1C
#30
0!
b1 #
b11001010111111101111000000001101 '
0-
0;
#35
1!
b100 ,
1-
b1 /
b10 0
b1000000000100 3
b10 6
0@
#40
0!
0-
b10011001 <
#45
1!
b10 )
b100 *
1-
b10 /
b11 0
01
bx 2
bx 3
14
b11011110101011011011111011101111 5
bz 8
1@
#50
0!
b10 #
0-
#55
1!
b1010 +
1-
b100 0
11
b10110111 2
b1000000001000 3
b11110000 8
b100100011010001010110011110001001101010111100110111101111 9
#60
0!
b10 (
0-
b1000100 :
#65
1!
b1000 ,
1-
b1 /
b101 0
b1000000001100 3
b11001010111111101011000010111010 5
b1 6
#70
0!
b11 #
0-
#75
1!
b100 )
b0 *
1-
b0 /
b110 0
01
bx 2
bx 3
b0 6
17
bz 8
0?
1D
#80
0!
0-
#85
1!
1-
b111 0
04
bx 5
bx 9
0C
0D
